<?xml version="1.0" encoding="UTF-8" standalone="no"?>
<svg
   xmlns:dc="http://purl.org/dc/elements/1.1/"
   xmlns:cc="http://creativecommons.org/ns#"
   xmlns:rdf="http://www.w3.org/1999/02/22-rdf-syntax-ns#"
   xmlns:svg="http://www.w3.org/2000/svg"
   xmlns="http://www.w3.org/2000/svg"
   xmlns:sodipodi="http://sodipodi.sourceforge.net/DTD/sodipodi-0.dtd"
   xmlns:inkscape="http://www.inkscape.org/namespaces/inkscape"
   width="97.164764"
   height="199.72079"
   viewBox="0 0 19.432953 39.944159"
   version="1.1"
   id="svg3729"
   sodipodi:docname="treason_stars.svg"
   inkscape:version="0.92.4 (5da689c313, 2019-01-14)">
  <metadata
     id="metadata3735">
    <rdf:RDF>
      <cc:Work
         rdf:about="">
        <dc:format>image/svg+xml</dc:format>
        <dc:type
           rdf:resource="http://purl.org/dc/dcmitype/StillImage" />
        <dc:title>Treason Stars</dc:title>
      </cc:Work>
    </rdf:RDF>
  </metadata>
  <defs
     id="defs3733" />
  <sodipodi:namedview
     pagecolor="#ffffff"
     bordercolor="#666666"
     borderopacity="1"
     objecttolerance="10"
     gridtolerance="10"
     guidetolerance="10"
     inkscape:pageopacity="0"
     inkscape:pageshadow="2"
     inkscape:window-width="1920"
     inkscape:window-height="1017"
     id="namedview3731"
     showgrid="false"
     inkscape:zoom="3.5416667"
     inkscape:cx="127.05078"
     inkscape:cy="86.368773"
     inkscape:window-x="-8"
     inkscape:window-y="-8"
     inkscape:window-maximized="1"
     inkscape:current-layer="svg3729"
     inkscape:snap-bbox="true"
     inkscape:snap-page="true"
     fit-margin-top="0"
     fit-margin-left="0"
     fit-margin-right="0"
     fit-margin-bottom="0" />
  <title
     id="title3725">Treason Stars</title>
  <path
     sodipodi:type="star"
     style="fill:#fffff0;fill-opacity:0;stroke-width:0.2"
     id="path4572-7"
     sodipodi:sides="5"
     sodipodi:cx="24.25703"
     sodipodi:cy="20.189484"
     sodipodi:r1="22.476431"
     sodipodi:r2="11.238216"
     sodipodi:arg1="0.91724531"
     sodipodi:arg2="1.5455638"
     inkscape:flatsided="false"
     inkscape:rounded="0"
     inkscape:randomized="0"
     d="M 37.922914,38.034191 24.540569,31.424123 11.508696,38.700829 13.659872,23.930839 2.7122429,13.785417 17.424088,11.26713 23.689954,-2.2797925 30.631198,10.93381 45.451346,12.706774 35.029425,23.391517 Z"
     inkscape:transform-center-x="0.18542365"
     inkscape:transform-center-y="-2.1753071"
     transform="matrix(0.45453191,0,0,0.47217741,-0.86171881,-0.25312806)" />
  <g
     id="g4594"
     transform="matrix(0.42955882,0,0,0.42955882,-1.104778,-0.35028952)">
    <path
       sodipodi:type="star"
       style="fill:#ffffff;fill-opacity:1;stroke-width:0.2"
       id="path4591"
       sodipodi:sides="5"
       sodipodi:cx="24.25703"
       sodipodi:cy="20.189484"
       sodipodi:r1="22.476431"
       sodipodi:r2="11.238215"
       sodipodi:arg1="0.91724531"
       sodipodi:arg2="1.5455638"
       inkscape:flatsided="false"
       inkscape:rounded="0"
       inkscape:randomized="0"
       d="M 37.922914,38.034191 24.540569,31.424122 11.508696,38.700829 13.659873,23.930839 2.7122429,13.785417 17.424088,11.26713 23.689954,-2.2797925 30.631198,10.933811 45.451346,12.706774 35.029424,23.391517 Z"
       inkscape:transform-center-x="0.61277821"
       inkscape:transform-center-y="-2.3437594"
       transform="matrix(0.98679366,0.02723052,-0.02773614,1.0458224,1.7951879,5.6141198)" />
  </g>
  <g
     id="g4603"
     transform="matrix(0.42955882,0,0,0.42955882,-1.1047779,-1.0074046)">
    <path
       transform="matrix(1.0577494,0.02918854,-0.02973052,1.1210226,0.1128641,4.2094313)"
       inkscape:transform-center-y="-2.5122886"
       inkscape:transform-center-x="0.6568403"
       d="M 37.922914,38.034191 24.540569,31.424122 11.508696,38.700829 13.659873,23.930839 2.7122429,13.785417 17.424088,11.26713 23.689954,-2.2797925 30.631198,10.933811 45.451346,12.706774 35.029424,23.391517 Z"
       inkscape:randomized="0"
       inkscape:rounded="0"
       inkscape:flatsided="false"
       sodipodi:arg2="1.5455638"
       sodipodi:arg1="0.91724531"
       sodipodi:r2="11.238215"
       sodipodi:r1="22.476431"
       sodipodi:cy="20.189484"
       sodipodi:cx="24.25703"
       sodipodi:sides="5"
       id="path4572"
       style="fill:#7db8e4;fill-opacity:1;stroke-width:0.2"
       sodipodi:type="star" />
    <g
       id="g4598">
      <path
         sodipodi:type="star"
         style="fill:#ffffff;fill-opacity:1;stroke-width:0.2"
         id="path4596"
         sodipodi:sides="5"
         sodipodi:cx="24.25703"
         sodipodi:cy="20.189484"
         sodipodi:r1="22.476431"
         sodipodi:r2="11.238215"
         sodipodi:arg1="0.91724531"
         sodipodi:arg2="1.5455638"
         inkscape:flatsided="false"
         inkscape:rounded="0"
         inkscape:randomized="0"
         d="M 37.922914,38.034191 24.540569,31.424122 11.508696,38.700829 13.659873,23.930839 2.7122429,13.785417 17.424088,11.26713 23.689954,-2.2797925 30.631198,10.933811 45.451346,12.706774 35.029424,23.391517 Z"
         inkscape:transform-center-x="0.61277821"
         inkscape:transform-center-y="-2.3437594"
         transform="matrix(0.98679366,0.02723052,-0.02773614,1.0458224,1.7951879,5.6141198)" />
    </g>
  </g>
  <path
     sodipodi:type="star"
     style="fill:#7db8e4;fill-opacity:1;stroke-width:0.2"
     id="path4572-8"
     sodipodi:sides="5"
     sodipodi:cx="24.25703"
     sodipodi:cy="20.189484"
     sodipodi:r1="22.476431"
     sodipodi:r2="11.238215"
     sodipodi:arg1="0.91724531"
     sodipodi:arg2="1.5455638"
     inkscape:flatsided="false"
     inkscape:rounded="0"
     inkscape:randomized="0"
     d="M 37.922914,38.034191 24.540569,31.424122 11.508696,38.700829 13.659873,23.930839 2.7122429,13.785417 17.424088,11.26713 23.689954,-2.2797925 30.631198,10.933811 45.451346,12.706774 35.029424,23.391517 Z"
     inkscape:transform-center-x="0.6568403"
     inkscape:transform-center-y="-2.5122886"
     transform="matrix(0.45436558,0.01253819,-0.01277101,0.48154515,-1.0562961,21.153495)" />
  <g
     id="g4598-5"
     transform="matrix(0.42955882,0,0,0.42955882,-1.104778,19.345297)"
     style="fill:#ffcc00">
    <path
       transform="matrix(0.98679366,0.02723052,-0.02773614,1.0458224,1.7951879,5.6141198)"
       inkscape:transform-center-y="-2.3437594"
       inkscape:transform-center-x="0.61277821"
       d="M 37.922914,38.034191 24.540569,31.424122 11.508696,38.700829 13.659873,23.930839 2.7122429,13.785417 17.424088,11.26713 23.689954,-2.2797925 30.631198,10.933811 45.451346,12.706774 35.029424,23.391517 Z"
       inkscape:randomized="0"
       inkscape:rounded="0"
       inkscape:flatsided="false"
       sodipodi:arg2="1.5455638"
       sodipodi:arg1="0.91724531"
       sodipodi:r2="11.238215"
       sodipodi:r1="22.476431"
       sodipodi:cy="20.189484"
       sodipodi:cx="24.25703"
       sodipodi:sides="5"
       id="path4596-9"
       style="fill:#ffcc00;fill-opacity:1;stroke-width:0.2"
       sodipodi:type="star" />
  </g>
</svg>
